module github.com/forbole/bdjuno/v4

go 1.19

require (
	cosmossdk.io/math v1.0.0-beta.3
	github.com/cosmos/cosmos-sdk v0.46.8
	github.com/forbole/juno/v4 v4.0.0-20230207053719-d0f32f8970c3
	github.com/go-co-op/gocron v1.28.0
	github.com/gogo/protobuf v1.3.3
	github.com/jmoiron/sqlx v1.3.5
	github.com/joltify-finance/joltify_lending v0.0.6-0.20230607113905-035fd7b43741
	github.com/lib/pq v1.10.9
	github.com/pelletier/go-toml v1.9.5
	github.com/prometheus/client_golang v1.15.1
	github.com/proullon/ramsql v0.0.0-20181213202341-817cee58a244
	github.com/rs/zerolog v1.29.1
	github.com/spf13/cobra v1.7.0
	github.com/stretchr/testify v1.8.3
	github.com/tendermint/tendermint v0.34.24
	google.golang.org/grpc v1.55.0
	gopkg.in/yaml.v3 v3.0.1

)

require (
	cloud.google.com/go v0.110.0 // indirect
	cloud.google.com/go/compute v1.18.0 // indirect
	cloud.google.com/go/compute/metadata v0.2.3 // indirect
	cloud.google.com/go/iam v0.12.0 // indirect
	cloud.google.com/go/storage v1.28.1 // indirect
	cosmossdk.io/errors v1.0.0-beta.7 // indirect
	filippo.io/edwards25519 v1.0.0-rc.1 // indirect
	github.com/99designs/go-keychain v0.0.0-20191008050251-8e49817e8af4 // indirect
	github.com/99designs/keyring v1.2.1 // indirect
	github.com/ChainSafe/go-schnorrkel v0.0.0-20200405005733-88cbf1b4c40d // indirect
	github.com/Workiva/go-datastructures v1.0.53 // indirect
	github.com/armon/go-metrics v0.4.1 // indirect
	github.com/aws/aws-sdk-go v1.40.45 // indirect
	github.com/beorn7/perks v1.0.1 // indirect
	github.com/bgentry/go-netrc v0.0.0-20140422174119-9fd32a8b3d3d // indirect
	github.com/bgentry/speakeasy v0.1.1-0.20220910012023-760eaf8b6816 // indirect
	github.com/btcsuite/btcd v0.22.2 // indirect
	github.com/btcsuite/btcd/btcec/v2 v2.3.2 // indirect
	github.com/cespare/xxhash v1.1.0 // indirect
	github.com/cespare/xxhash/v2 v2.2.0 // indirect
	github.com/chzyer/readline v0.0.0-20180603132655-2972be24d48e // indirect
	github.com/cockroachdb/apd/v2 v2.0.2 // indirect
	github.com/confio/ics23/go v0.9.0 // indirect
	github.com/cosmos/btcutil v1.0.5 // indirect
	github.com/cosmos/cosmos-proto v1.0.0-alpha8 // indirect
	github.com/cosmos/go-bip39 v1.0.0 // indirect
	github.com/cosmos/gogoproto v1.4.3 // indirect
	github.com/cosmos/gorocksdb v1.2.0 // indirect
	github.com/cosmos/iavl v0.19.4 // indirect
	github.com/cosmos/ibc-go/v6 v6.1.0 // indirect
	github.com/cosmos/ledger-cosmos-go v0.12.2 // indirect
	github.com/creachadair/taskgroup v0.3.2 // indirect
	github.com/danieljoos/wincred v1.1.2 // indirect
	github.com/davecgh/go-spew v1.1.1 // indirect
	github.com/decred/dcrd/dcrec/secp256k1/v4 v4.0.1 // indirect
	github.com/dgraph-io/badger/v2 v2.2007.4 // indirect
	github.com/dgraph-io/ristretto v0.1.0 // indirect
	github.com/dgryski/go-farm v0.0.0-20200201041132-a6ae2369ad13 // indirect
	github.com/dustin/go-humanize v1.0.1-0.20200219035652-afde56e7acac // indirect
	github.com/dvsekhvalnov/jose2go v1.5.0 // indirect
	github.com/ethereum/go-ethereum v1.10.22 // indirect
	github.com/felixge/httpsnoop v1.0.2 // indirect
	github.com/fsnotify/fsnotify v1.6.0 // indirect
	github.com/go-kit/kit v0.12.0 // indirect
	github.com/go-kit/log v0.2.1 // indirect
	github.com/go-logfmt/logfmt v0.5.1 // indirect
	github.com/godbus/dbus v0.0.0-20190726142602-4481cbc300e2 // indirect
	github.com/gogo/gateway v1.1.0 // indirect
	github.com/golang/glog v1.1.0 // indirect
	github.com/golang/groupcache v0.0.0-20210331224755-41bb18bfe9da // indirect
	github.com/golang/protobuf v1.5.3 // indirect
	github.com/golang/snappy v0.0.4 // indirect
	github.com/google/btree v1.0.1 // indirect
	github.com/google/go-cmp v0.5.9 // indirect
	github.com/google/orderedcode v0.0.1 // indirect
	github.com/google/uuid v1.3.0 // indirect
	github.com/googleapis/enterprise-certificate-proxy v0.2.3 // indirect
	github.com/googleapis/gax-go/v2 v2.7.0 // indirect
	github.com/gorilla/handlers v1.5.1 // indirect
	github.com/gorilla/mux v1.8.0 // indirect
	github.com/gorilla/websocket v1.5.0 // indirect
	github.com/grpc-ecosystem/go-grpc-middleware v1.3.0 // indirect
	github.com/grpc-ecosystem/grpc-gateway v1.16.0 // indirect
	github.com/gsterjov/go-libsecret v0.0.0-20161001094733-a6f4afe4910c // indirect
	github.com/gtank/merlin v0.1.1 // indirect
	github.com/gtank/ristretto255 v0.1.2 // indirect
	github.com/hashicorp/go-cleanhttp v0.5.2 // indirect
	github.com/hashicorp/go-getter v1.6.1 // indirect
	github.com/hashicorp/go-immutable-radix v1.3.1 // indirect
	github.com/hashicorp/go-safetemp v1.0.0 // indirect
	github.com/hashicorp/go-uuid v1.0.1 // indirect
	github.com/hashicorp/go-version v1.6.0 // indirect
	github.com/hashicorp/golang-lru v0.5.5-0.20210104140557-80c98217689d // indirect
	github.com/hashicorp/hcl v1.0.0 // indirect
	github.com/hdevalence/ed25519consensus v0.0.0-20220222234857-c00d1f31bab3 // indirect
	github.com/inconshreveable/mousetrap v1.1.0 // indirect
	github.com/jmespath/go-jmespath v0.4.0 // indirect
	github.com/jmhodges/levigo v1.0.0 // indirect
	github.com/klauspost/compress v1.15.11 // indirect
	github.com/libp2p/go-buffer-pool v0.1.0 // indirect
	github.com/magiconair/properties v1.8.6 // indirect
	github.com/manifoldco/promptui v0.9.0 // indirect
	github.com/mattn/go-colorable v0.1.13 // indirect
	github.com/mattn/go-isatty v0.0.16 // indirect
	github.com/matttproud/golang_protobuf_extensions v1.0.4 // indirect
	github.com/mimoo/StrobeGo v0.0.0-20210601165009-122bf33a46e0 // indirect
	github.com/minio/highwayhash v1.0.2 // indirect
	github.com/mitchellh/go-homedir v1.1.0 // indirect
	github.com/mitchellh/go-testing-interface v1.0.0 // indirect
	github.com/mitchellh/mapstructure v1.5.0 // indirect
	github.com/mtibben/percent v0.2.1 // indirect
	github.com/onsi/gomega v1.18.1 // indirect
	github.com/pelletier/go-toml/v2 v2.0.5 // indirect
	github.com/petermattis/goid v0.0.0-20180202154549-b0b1615b78e5 // indirect
	github.com/pkg/errors v0.9.1 // indirect
	github.com/pmezard/go-difflib v1.0.0 // indirect
	github.com/prometheus/client_model v0.3.0 // indirect
	github.com/prometheus/common v0.42.0 // indirect
	github.com/prometheus/procfs v0.9.0 // indirect
	github.com/rakyll/statik v0.1.7 // indirect
	github.com/rcrowley/go-metrics v0.0.0-20201227073835-cf1acfcdf475 // indirect
	github.com/regen-network/cosmos-proto v0.3.1 // indirect
	github.com/robfig/cron/v3 v3.0.1 // indirect
	github.com/rs/cors v1.8.2 // indirect
	github.com/sasha-s/go-deadlock v0.3.1 // indirect
	github.com/spf13/afero v1.9.2 // indirect
	github.com/spf13/cast v1.5.0 // indirect
	github.com/spf13/jwalterweatherman v1.1.0 // indirect
	github.com/spf13/pflag v1.0.5 // indirect
	github.com/spf13/viper v1.14.0 // indirect
	github.com/subosito/gotenv v1.4.1 // indirect
	github.com/syndtr/goleveldb v1.0.1-0.20210819022825-2ae1ddf74ef7 // indirect
	github.com/tendermint/go-amino v0.16.0 // indirect
	github.com/tendermint/tm-db v0.6.7 // indirect
	github.com/tidwall/btree v1.5.0 // indirect
	github.com/ulikunitz/xz v0.5.8 // indirect
	github.com/zondax/hid v0.9.1 // indirect
	github.com/zondax/ledger-go v0.14.1 // indirect
	go.etcd.io/bbolt v1.3.6 // indirect
	go.opencensus.io v0.24.0 // indirect
	go.uber.org/atomic v1.10.0 // indirect
	golang.org/x/crypto v0.8.0 // indirect
	golang.org/x/exp v0.0.0-20220722155223-a9213eeb770e // indirect
	golang.org/x/net v0.9.0 // indirect
	golang.org/x/oauth2 v0.6.0 // indirect
	golang.org/x/sys v0.7.0 // indirect
	golang.org/x/term v0.7.0 // indirect
	golang.org/x/text v0.9.0 // indirect
	golang.org/x/xerrors v0.0.0-20220907171357-04be3eba64a2 // indirect
	google.golang.org/api v0.110.0 // indirect
	google.golang.org/appengine v1.6.7 // indirect
	google.golang.org/genproto v0.0.0-20230306155012-7f2fa6fef1f4 // indirect
	google.golang.org/protobuf v1.30.0 // indirect
	gopkg.in/ini.v1 v1.67.0 // indirect
	gopkg.in/yaml.v2 v2.4.0 // indirect
	sigs.k8s.io/yaml v1.3.0 // indirect
)

replace (
	//github.com/99designs/keyring => github.com/cosmos/keyring v1.1.7-0.20210622111912-ef00f8ac3d76
	github.com/gin-gonic/gin => github.com/gin-gonic/gin v1.7.0
	github.com/gogo/protobuf => github.com/regen-network/protobuf v1.3.3-alpha.regen.1

// use informal system fork of tendermint
//github.com/tendermint/tendermint => github.com/informalsystems/tendermint v0.34.24
)
